# setting LC_ALL to "C"
# --> Including file '/afs/cern.ch/work/m/marcocle/workspace/Gaudi/GaudiExamples/options/MultiInput/Read.py'
# <-- End of file '/afs/cern.ch/work/m/marcocle/workspace/Gaudi/GaudiExamples/options/MultiInput/Read.py'
# applying configuration of GaudiPersistency
# /***** User GaudiPersistency/GaudiPersistency ******************************************************
# |-<no properties>
# \----- (End of User GaudiPersistency/GaudiPersistency) ---------------------------------------------
# Dumping all configurables and properties (different from default)
{'ApplicationMgr': {'EvtMax': 100,
                    'ExtSvc': ['FileRecordDataSvc/FileRecordDataSvc'],
                    'HistogramPersistency': 'NONE',
                    'SvcOptMapping': ['Gaudi::MultiFileCatalog/FileCatalog',
                                      'Gaudi::IODataManager/IODataManager',
                                      'Gaudi::RootCnvSvc/RootCnvSvc'],
                    'TopAlg': ['GaudiSequencer/EventAlgs']},
 'EventAlgs': {'DataInputs': DataObjectDescriptorCollection(''),
               'DataOutputs': DataObjectDescriptorCollection(''),
               'Members': ['Gaudi::Examples::MultiInput::ReadAlg/Gaudi::Examples::MultiInput::ReadAlg']},
 'EventPersistencySvc': {'CnvServices': ['Gaudi::RootCnvSvc/RootCnvSvc']},
 'EventSelector': {'Input': ["DATAFILE='PFN:MI_Base.dst'  SVC='Gaudi::RootEvtSelector' OPT='READ'"]},
 'FileCatalog': {'Catalogs': ['xmlcatalog_file:MultiInput.xml']},
 'FileRecordPersistencySvc': {'CnvServices': ['Gaudi::RootCnvSvc/RootCnvSvc']},
 'Gaudi::Examples::MultiInput::ReadAlg': {'AddressesFile': 'addresses.txt',
                                          'DataInputs': DataObjectDescriptorCollection(''),
                                          'DataOutputs': DataObjectDescriptorCollection(''),
                                          'OutputLevel': 2}}
ApplicationMgr    SUCCESS
====================================================================================================================================
                                                   Welcome to ApplicationMgr (GaudiCoreSvc v3r5)
                                          running on pclhcb117 on Fri Oct 30 11:45:38 2015
====================================================================================================================================
ApplicationMgr       INFO Application Manager Configured successfully
EventAlgs            INFO Member list: Gaudi::Examples::MultiInput::ReadAlg
RndmGenSvc.Engine    INFO Generator engine type:CLHEP::RanluxEngine
RndmGenSvc.Engine    INFO Current Seed:1234567 Luxury:3
RndmGenSvc           INFO Using Random engine:HepRndm::Engine<CLHEP::RanluxEngine>
ToolSvc.Sequenc...   INFO This machine has a speed about   3.97 times the speed of a 2.8 GHz Xeon.
Gaudi::Examples...  DEBUG Reading addresses.txt
Gaudi::Examples...  DEBUG Read 100 addresses
EventPersistenc...   INFO Added successfully Conversion service:RootCnvSvc
EventSelector        INFO Stream:EventSelector.DataStreamTool_1 Def:DATAFILE='PFN:MI_Base.dst'  SVC='Gaudi::RootEvtSelector' OPT='READ'
HistogramPersis...WARNING Histograms saving not required.
ApplicationMgr       INFO Application Manager Initialized successfully
ApplicationMgr       INFO Application Manager Started successfully
EventSelector     SUCCESS Reading Event record 1. Record number within stream 1: 1
Gaudi::Examples...   INFO Base event tracks: 39
Gaudi::Examples...   INFO Extra event tracks: 36
Gaudi::Examples...   INFO Base event tracks: 64
Gaudi::Examples...   INFO Extra event tracks: 44
Gaudi::Examples...   INFO Base event tracks: 28
Gaudi::Examples...   INFO Extra event tracks: 52
Gaudi::Examples...   INFO Base event tracks: 30
Gaudi::Examples...   INFO Extra event tracks: 3
Gaudi::Examples...   INFO Base event tracks: 78
Gaudi::Examples...   INFO Extra event tracks: 45
Gaudi::Examples...   INFO Base event tracks: 68
Gaudi::Examples...   INFO Extra event tracks: 5
Gaudi::Examples...   INFO Base event tracks: 53
Gaudi::Examples...   INFO Extra event tracks: 65
Gaudi::Examples...   INFO Base event tracks: 26
Gaudi::Examples...   INFO Extra event tracks: 86
Gaudi::Examples...   INFO Base event tracks: 42
Gaudi::Examples...   INFO Extra event tracks: 15
Gaudi::Examples...   INFO Base event tracks: 70
Gaudi::Examples...   INFO Extra event tracks: 2
EventSelector     SUCCESS Reading Event record 11. Record number within stream 1: 11
Gaudi::Examples...   INFO Base event tracks: 20
Gaudi::Examples...   INFO Extra event tracks: 62
Gaudi::Examples...   INFO Base event tracks: 28
Gaudi::Examples...   INFO Extra event tracks: 27
Gaudi::Examples...   INFO Base event tracks: 81
Gaudi::Examples...   INFO Extra event tracks: 89
Gaudi::Examples...   INFO Base event tracks: 38
Gaudi::Examples...   INFO Extra event tracks: 59
Gaudi::Examples...   INFO Base event tracks: 25
Gaudi::Examples...   INFO Extra event tracks: 70
Gaudi::Examples...   INFO Base event tracks: 68
Gaudi::Examples...   INFO Extra event tracks: 64
Gaudi::Examples...   INFO Base event tracks: 21
Gaudi::Examples...   INFO Extra event tracks: 60
Gaudi::Examples...   INFO Base event tracks: 26
Gaudi::Examples...   INFO Extra event tracks: 47
Gaudi::Examples...   INFO Base event tracks: 92
Gaudi::Examples...   INFO Extra event tracks: 20
Gaudi::Examples...   INFO Base event tracks: 26
Gaudi::Examples...   INFO Extra event tracks: 93
EventSelector     SUCCESS Reading Event record 21. Record number within stream 1: 21
Gaudi::Examples...   INFO Base event tracks: 37
Gaudi::Examples...   INFO Extra event tracks: 78
Gaudi::Examples...   INFO Base event tracks: 74
Gaudi::Examples...   INFO Extra event tracks: 58
Gaudi::Examples...   INFO Base event tracks: 82
Gaudi::Examples...   INFO Extra event tracks: 91
Gaudi::Examples...   INFO Base event tracks: 92
Gaudi::Examples...   INFO Extra event tracks: 32
Gaudi::Examples...   INFO Base event tracks: 62
Gaudi::Examples...   INFO Extra event tracks: 50
Gaudi::Examples...   INFO Base event tracks: 84
Gaudi::Examples...   INFO Extra event tracks: 43
Gaudi::Examples...   INFO Base event tracks: 51
Gaudi::Examples...   INFO Extra event tracks: 13
Gaudi::Examples...   INFO Base event tracks: 25
Gaudi::Examples...   INFO Extra event tracks: 41
Gaudi::Examples...   INFO Base event tracks: 88
Gaudi::Examples...   INFO Extra event tracks: 94
Gaudi::Examples...   INFO Base event tracks: 12
Gaudi::Examples...   INFO Extra event tracks: 92
EventSelector     SUCCESS Reading Event record 31. Record number within stream 1: 31
Gaudi::Examples...   INFO Base event tracks: 69
Gaudi::Examples...   INFO Extra event tracks: 61
Gaudi::Examples...   INFO Base event tracks: 98
Gaudi::Examples...   INFO Extra event tracks: 35
Gaudi::Examples...   INFO Base event tracks: 44
Gaudi::Examples...   INFO Extra event tracks: 82
Gaudi::Examples...   INFO Base event tracks: 41
Gaudi::Examples...   INFO Extra event tracks: 5
Gaudi::Examples...   INFO Base event tracks: 78
Gaudi::Examples...   INFO Extra event tracks: 70
Gaudi::Examples...   INFO Base event tracks: 73
Gaudi::Examples...   INFO Extra event tracks: 41
Gaudi::Examples...   INFO Base event tracks: 50
Gaudi::Examples...   INFO Extra event tracks: 79
Gaudi::Examples...   INFO Base event tracks: 27
Gaudi::Examples...   INFO Extra event tracks: 96
Gaudi::Examples...   INFO Base event tracks: 68
Gaudi::Examples...   INFO Extra event tracks: 49
Gaudi::Examples...   INFO Base event tracks: 57
Gaudi::Examples...   INFO Extra event tracks: 71
EventSelector     SUCCESS Reading Event record 41. Record number within stream 1: 41
Gaudi::Examples...   INFO Base event tracks: 69
Gaudi::Examples...   INFO Extra event tracks: 1
Gaudi::Examples...   INFO Base event tracks: 43
Gaudi::Examples...   INFO Extra event tracks: 93
Gaudi::Examples...   INFO Base event tracks: 47
Gaudi::Examples...   INFO Extra event tracks: 15
Gaudi::Examples...   INFO Base event tracks: 60
Gaudi::Examples...   INFO Extra event tracks: 69
Gaudi::Examples...   INFO Base event tracks: 1
Gaudi::Examples...   INFO Extra event tracks: 73
Gaudi::Examples...   INFO Base event tracks: 25
Gaudi::Examples...   INFO Extra event tracks: 32
Gaudi::Examples...   INFO Base event tracks: 61
Gaudi::Examples...   INFO Extra event tracks: 83
Gaudi::Examples...   INFO Base event tracks: 23
Gaudi::Examples...   INFO Extra event tracks: 78
Gaudi::Examples...   INFO Base event tracks: 7
Gaudi::Examples...   INFO Extra event tracks: 48
Gaudi::Examples...   INFO Base event tracks: 91
Gaudi::Examples...   INFO Extra event tracks: 44
EventSelector     SUCCESS Reading Event record 51. Record number within stream 1: 51
Gaudi::Examples...   INFO Base event tracks: 4
Gaudi::Examples...   INFO Extra event tracks: 47
Gaudi::Examples...   INFO Base event tracks: 69
Gaudi::Examples...   INFO Extra event tracks: 19
Gaudi::Examples...   INFO Base event tracks: 75
Gaudi::Examples...   INFO Extra event tracks: 14
Gaudi::Examples...   INFO Base event tracks: 28
Gaudi::Examples...   INFO Extra event tracks: 20
Gaudi::Examples...   INFO Base event tracks: 91
Gaudi::Examples...   INFO Extra event tracks: 95
Gaudi::Examples...   INFO Base event tracks: 16
Gaudi::Examples...   INFO Extra event tracks: 64
Gaudi::Examples...   INFO Base event tracks: 25
Gaudi::Examples...   INFO Extra event tracks: 99
Gaudi::Examples...   INFO Base event tracks: 23
Gaudi::Examples...   INFO Extra event tracks: 60
Gaudi::Examples...   INFO Base event tracks: 37
Gaudi::Examples...   INFO Extra event tracks: 69
Gaudi::Examples...   INFO Base event tracks: 33
Gaudi::Examples...   INFO Extra event tracks: 65
EventSelector     SUCCESS Reading Event record 61. Record number within stream 1: 61
Gaudi::Examples...   INFO Base event tracks: 2
Gaudi::Examples...   INFO Extra event tracks: 51
Gaudi::Examples...   INFO Base event tracks: 27
Gaudi::Examples...   INFO Extra event tracks: 15
Gaudi::Examples...   INFO Base event tracks: 45
Gaudi::Examples...   INFO Extra event tracks: 73
Gaudi::Examples...   INFO Base event tracks: 92
Gaudi::Examples...   INFO Extra event tracks: 45
Gaudi::Examples...   INFO Base event tracks: 17
Gaudi::Examples...   INFO Extra event tracks: 80
Gaudi::Examples...   INFO Base event tracks: 69
Gaudi::Examples...   INFO Extra event tracks: 5
Gaudi::Examples...   INFO Base event tracks: 79
Gaudi::Examples...   INFO Extra event tracks: 70
Gaudi::Examples...   INFO Base event tracks: 87
Gaudi::Examples...   INFO Extra event tracks: 13
Gaudi::Examples...   INFO Base event tracks: 22
Gaudi::Examples...   INFO Extra event tracks: 95
Gaudi::Examples...   INFO Base event tracks: 78
Gaudi::Examples...   INFO Extra event tracks: 23
EventSelector     SUCCESS Reading Event record 71. Record number within stream 1: 71
Gaudi::Examples...   INFO Base event tracks: 47
Gaudi::Examples...   INFO Extra event tracks: 5
Gaudi::Examples...   INFO Base event tracks: 51
Gaudi::Examples...   INFO Extra event tracks: 16
Gaudi::Examples...   INFO Base event tracks: 37
Gaudi::Examples...   INFO Extra event tracks: 81
Gaudi::Examples...   INFO Base event tracks: 76
Gaudi::Examples...   INFO Extra event tracks: 40
Gaudi::Examples...   INFO Base event tracks: 89
Gaudi::Examples...   INFO Extra event tracks: 23
Gaudi::Examples...   INFO Base event tracks: 59
Gaudi::Examples...   INFO Extra event tracks: 80
Gaudi::Examples...   INFO Base event tracks: 5
Gaudi::Examples...   INFO Extra event tracks: 84
Gaudi::Examples...   INFO Base event tracks: 69
Gaudi::Examples...   INFO Extra event tracks: 82
Gaudi::Examples...   INFO Base event tracks: 7
Gaudi::Examples...   INFO Extra event tracks: 35
Gaudi::Examples...   INFO Base event tracks: 55
Gaudi::Examples...   INFO Extra event tracks: 48
EventSelector     SUCCESS Reading Event record 81. Record number within stream 1: 81
Gaudi::Examples...   INFO Base event tracks: 0
Gaudi::Examples...   INFO Extra event tracks: 36
Gaudi::Examples...   INFO Base event tracks: 56
Gaudi::Examples...   INFO Extra event tracks: 14
Gaudi::Examples...   INFO Base event tracks: 73
Gaudi::Examples...   INFO Extra event tracks: 66
Gaudi::Examples...   INFO Base event tracks: 90
Gaudi::Examples...   INFO Extra event tracks: 58
Gaudi::Examples...   INFO Base event tracks: 89
Gaudi::Examples...   INFO Extra event tracks: 11
Gaudi::Examples...   INFO Base event tracks: 38
Gaudi::Examples...   INFO Extra event tracks: 55
Gaudi::Examples...   INFO Base event tracks: 10
Gaudi::Examples...   INFO Extra event tracks: 28
Gaudi::Examples...   INFO Base event tracks: 76
Gaudi::Examples...   INFO Extra event tracks: 89
Gaudi::Examples...   INFO Base event tracks: 57
Gaudi::Examples...   INFO Extra event tracks: 79
Gaudi::Examples...   INFO Base event tracks: 14
Gaudi::Examples...   INFO Extra event tracks: 72
EventSelector     SUCCESS Reading Event record 91. Record number within stream 1: 91
Gaudi::Examples...   INFO Base event tracks: 2
Gaudi::Examples...   INFO Extra event tracks: 71
Gaudi::Examples...   INFO Base event tracks: 65
Gaudi::Examples...   INFO Extra event tracks: 54
Gaudi::Examples...   INFO Base event tracks: 84
Gaudi::Examples...   INFO Extra event tracks: 87
Gaudi::Examples...   INFO Base event tracks: 86
Gaudi::Examples...   INFO Extra event tracks: 97
Gaudi::Examples...   INFO Base event tracks: 78
Gaudi::Examples...   INFO Extra event tracks: 50
Gaudi::Examples...   INFO Base event tracks: 26
Gaudi::Examples...   INFO Extra event tracks: 85
Gaudi::Examples...   INFO Base event tracks: 37
Gaudi::Examples...   INFO Extra event tracks: 57
Gaudi::Examples...   INFO Base event tracks: 63
Gaudi::Examples...   INFO Extra event tracks: 86
Gaudi::Examples...   INFO Base event tracks: 52
Gaudi::Examples...   INFO Extra event tracks: 52
Gaudi::Examples...   INFO Base event tracks: 21
Gaudi::Examples...   INFO Extra event tracks: 88
ApplicationMgr       INFO Application Manager Stopped successfully
EventLoopMgr         INFO Histograms converted successfully according to request.
RootCnvSvc           INFO Disconnected data IO:72538B5A-F37E-E511-BB9E-082E5F2B1B1D [MI_Ext.dst]
RootCnvSvc           INFO Disconnected data IO:9C4E9A58-F37E-E511-9B0A-082E5F2B1B1D [MI_Base.dst]
ToolSvc              INFO Removing all tools created by ToolSvc
ToolSvc.Sequenc...   INFO --------------------------------------------------------------------------------------------------
ToolSvc.Sequenc...   INFO This machine has a speed about   3.97 times the speed of a 2.8 GHz Xeon.
ToolSvc.Sequenc...   INFO Algorithm          (millisec) |    <user> |   <clock> |      min       max    sigma | entries | total (s) |
ToolSvc.Sequenc...   INFO --------------------------------------------------------------------------------------------------
ToolSvc.Sequenc...   INFO --------------------------------------------------------------------------------------------------
ApplicationMgr       INFO Application Manager Finalized successfully
ApplicationMgr       INFO Application Manager Terminated successfully
